<svg width="80" height="34" viewBox="0 0 80 34" fill="none" xmlns="http://www.w3.org/2000/svg">
<path fill-rule="evenodd" clip-rule="evenodd" d="M13.4614 3.86206L11.4422 25.1034H7.4037L8.31561 15.5106H4.95038L4.03846 25.1035H0L2.01923 3.86218H6.05769L5.3412 11.3994H8.70643L9.42293 3.86206H13.4614Z" fill="url(#paint0_linear)"/>
<path d="M16.3462 3.86206H20.1923L18.2692 25.1034H14.4231L16.3462 3.86206Z" fill="url(#paint1_linear)"/>
<path d="M22.6175 13.388C22.6975 12.9055 23.1149 12.5517 23.604 12.5517H28.6279C29.2455 12.5517 29.7155 13.1061 29.6144 13.7155L29.3053 15.5775C29.2252 16.06 28.8079 16.4138 28.3188 16.4138H23.2949C22.6772 16.4138 22.2073 15.8594 22.3084 15.2501L22.6175 13.388Z" fill="#38E8BE"/>
<path d="M34.939 4.72435C35.0853 2.07406 37.277 0 39.9314 0H67.7932C70.6629 0 72.9438 2.41026 72.7856 5.27565L71.7917 23.2757C71.6454 25.9259 69.4537 28 66.7993 28H38.9375C36.0677 28 33.7869 25.5897 33.9451 22.7243L34.939 4.72435Z" fill="#38E8BE"/>
<g filter="url(#filter0_d)">
<mask id="path-5-inside-1" fill="white">
<path fill-rule="evenodd" clip-rule="evenodd" d="M75 3.86206H68.9401V3.86206H66.4431L64.4231 25.1034H67.5935V25.1035H73.2911L73.6534 20.9922H68.854L69.3101 16.1958H73.9643L74.3266 12.0845H69.7011L70.092 7.97328H74.6377L75 3.86206Z"/>
</mask>
<path fill-rule="evenodd" clip-rule="evenodd" d="M75 3.86206H68.9401V3.86206H66.4431L64.4231 25.1034H67.5935V25.1035H73.2911L73.6534 20.9922H68.854L69.3101 16.1958H73.9643L74.3266 12.0845H69.7011L70.092 7.97328H74.6377L75 3.86206Z" fill="#093A67"/>
<path d="M68.9401 3.86206V2.86206H67.9401V3.86206H68.9401ZM75 3.86206L75.9961 3.94985L76.092 2.86206H75V3.86206ZM68.9401 3.86206V4.86206H69.9401V3.86206H68.9401ZM66.4431 3.86206V2.86206H65.5336L65.4476 3.7674L66.4431 3.86206ZM64.4231 25.1034L63.4276 25.0087L63.3235 26.1034H64.4231V25.1034ZM67.5935 25.1034H68.5935V24.1034H67.5935V25.1034ZM67.5935 25.1035H66.5935V26.1035H67.5935V25.1035ZM73.2911 25.1035V26.1035H74.2068L74.2872 25.1913L73.2911 25.1035ZM73.6534 20.9922L74.6495 21.08L74.7454 19.9922H73.6534V20.9922ZM68.854 20.9922L67.8585 20.8976L67.7544 21.9922H68.854V20.9922ZM69.3101 16.1958V15.1958H68.4007L68.3146 16.1011L69.3101 16.1958ZM73.9643 16.1958V17.1958H74.8801L74.9605 16.2835L73.9643 16.1958ZM74.3266 12.0845L75.3228 12.1723L75.4186 11.0845H74.3266V12.0845ZM69.7011 12.0845L68.7056 11.9899L68.6015 13.0845H69.7011V12.0845ZM70.092 7.97328V6.97328H69.1826L69.0965 7.87861L70.092 7.97328ZM74.6377 7.97328V8.97328H75.5534L75.6338 8.06107L74.6377 7.97328ZM68.9401 4.86206H75V2.86206H68.9401V4.86206ZM69.9401 3.86206V3.86206H67.9401V3.86206H69.9401ZM66.4431 4.86206H68.9401V2.86206H66.4431V4.86206ZM65.4186 25.198L67.4386 3.95673L65.4476 3.7674L63.4276 25.0087L65.4186 25.198ZM67.5935 24.1034H64.4231V26.1034H67.5935V24.1034ZM66.5935 25.1034V25.1035H68.5935V25.1034H66.5935ZM67.5935 26.1035H73.2911V24.1035H67.5935V26.1035ZM74.2872 25.1913L74.6495 21.08L72.6572 20.9045L72.2949 25.0157L74.2872 25.1913ZM73.6534 19.9922H68.854V21.9922H73.6534V19.9922ZM68.3146 16.1011L67.8585 20.8976L69.8495 21.0869L70.3056 16.2904L68.3146 16.1011ZM73.9643 15.1958H69.3101V17.1958H73.9643V15.1958ZM73.3305 11.9967L72.9682 16.108L74.9605 16.2835L75.3228 12.1723L73.3305 11.9967ZM69.7011 13.0845H74.3266V11.0845H69.7011V13.0845ZM69.0965 7.87861L68.7056 11.9899L70.6966 12.1792L71.0875 8.06795L69.0965 7.87861ZM74.6377 6.97328H70.092V8.97328H74.6377V6.97328ZM74.0039 3.77427L73.6415 7.88549L75.6338 8.06107L75.9961 3.94985L74.0039 3.77427Z" fill="#093A67" mask="url(#path-5-inside-1)"/>
<path fill-rule="evenodd" clip-rule="evenodd" d="M69.5213 2.89655L69.5213 2.89655H65.4814L63.4614 24.1378H66.632V24.138H72.3295L72.6919 20.0267H67.8923L68.3484 15.2302H73.0028L73.3651 11.119H68.7394L69.1304 7.00777H73.676L74.0383 2.89655H69.5213Z" fill="white"/>
<mask id="path-8-inside-2" fill="white">
<path fill-rule="evenodd" clip-rule="evenodd" d="M61.507 3.86231L61.507 3.86206H57.1766L57.1766 3.86231H54.2634L53.8462 7.97354H56.7575L55.0114 25.1034H59.3418L61.0879 7.97354H63.9978L64.4231 3.86231H61.507Z"/>
</mask>
<path fill-rule="evenodd" clip-rule="evenodd" d="M61.507 3.86231L61.507 3.86206H57.1766L57.1766 3.86231H54.2634L53.8462 7.97354H56.7575L55.0114 25.1034H59.3418L61.0879 7.97354H63.9978L64.4231 3.86231H61.507Z" fill="#093A67"/>
<path d="M61.507 3.86206L62.5019 3.96327L62.6139 2.86206H61.507V3.86206ZM61.507 3.86231L60.5121 3.7611L60.4001 4.86231H61.507V3.86231ZM57.1766 3.86206V2.86206H56.2732L56.1818 3.76086L57.1766 3.86206ZM57.1766 3.86231V4.86231H58.08L58.1715 3.96351L57.1766 3.86231ZM54.2634 3.86231V2.86231H53.3597L53.2685 3.76135L54.2634 3.86231ZM53.8462 7.97354L52.8513 7.87259L52.7396 8.97354H53.8462V7.97354ZM56.7575 7.97354L57.7524 8.07495L57.8647 6.97354H56.7575V7.97354ZM55.0114 25.1034L54.0166 25.002L53.9043 26.1034H55.0114V25.1034ZM59.3418 25.1034V26.1034H60.2451L60.3367 25.2048L59.3418 25.1034ZM61.0879 7.97354V6.97354H60.1847L60.0931 7.87214L61.0879 7.97354ZM63.9978 7.97354V8.97354H64.8997L64.9925 8.07644L63.9978 7.97354ZM64.4231 3.86231L65.4178 3.9652L65.5319 2.86231H64.4231V3.86231ZM60.5121 3.76086L60.5121 3.7611L62.5019 3.96351L62.5019 3.96327L60.5121 3.76086ZM57.1766 4.86206H61.507V2.86206H57.1766V4.86206ZM58.1715 3.96351L58.1715 3.96327L56.1818 3.76086L56.1817 3.7611L58.1715 3.96351ZM54.2634 4.86231H57.1766V2.86231H54.2634V4.86231ZM54.8411 8.0745L55.2583 3.96327L53.2685 3.76135L52.8513 7.87259L54.8411 8.0745ZM56.7575 6.97354H53.8462V8.97354H56.7575V6.97354ZM56.0063 25.2048L57.7524 8.07495L55.7627 7.87214L54.0166 25.002L56.0063 25.2048ZM59.3418 24.1034H55.0114V26.1034H59.3418V24.1034ZM60.0931 7.87214L58.347 25.002L60.3367 25.2048L62.0828 8.07495L60.0931 7.87214ZM63.9978 6.97354H61.0879V8.97354H63.9978V6.97354ZM63.4284 3.75941L63.0031 7.87065L64.9925 8.07644L65.4178 3.9652L63.4284 3.75941ZM61.507 4.86231H64.4231V2.86231H61.507V4.86231Z" fill="#093A67" mask="url(#path-8-inside-2)"/>
<path fill-rule="evenodd" clip-rule="evenodd" d="M60.5454 2.89655H56.215L56.2149 2.89679H53.3017L52.8845 7.00802H55.7959L54.0498 24.1379H58.3802L60.1263 7.00802H63.0362L63.4614 2.89679H60.5453L60.5454 2.89655Z" fill="white"/>
<path d="M45.7397 24.6034L47.5722 4.36206H50.4143L48.5818 24.6034H45.7397Z" fill="#093A67" stroke="#093A67"/>
<path d="M46.1538 2.89655H49.9999L48.0769 24.1379H44.2307L46.1538 2.89655Z" fill="white"/>
<mask id="path-13-inside-3" fill="white">
<path fill-rule="evenodd" clip-rule="evenodd" d="M37.2877 21.6774L39.071 3.86206H34.8186L32.6924 25.1034H36.9448L36.9448 25.1034H41.9531L42.3075 21.6774H37.2877Z"/>
</mask>
<path fill-rule="evenodd" clip-rule="evenodd" d="M37.2877 21.6774L39.071 3.86206H34.8186L32.6924 25.1034H36.9448L36.9448 25.1034H41.9531L42.3075 21.6774H37.2877Z" fill="#093A67"/>
<path d="M39.071 3.86206L40.066 3.96166L40.1761 2.86206H39.071V3.86206ZM37.2877 21.6774L36.2927 21.5778L36.1827 22.6774H37.2877V21.6774ZM34.8186 3.86206V2.86206H33.9137L33.8236 3.76246L34.8186 3.86206ZM32.6924 25.1034L31.6974 25.0038L31.5873 26.1034H32.6924V25.1034ZM36.9448 25.1034V26.1034H37.8554L37.9404 25.1968L36.9448 25.1034ZM36.9448 25.1034V24.1034H36.0342L35.9492 25.0101L36.9448 25.1034ZM41.9531 25.1034V26.1034H42.855L42.9478 25.2063L41.9531 25.1034ZM42.3075 21.6774L43.3022 21.7803L43.4163 20.6774H42.3075V21.6774ZM38.076 3.76246L36.2927 21.5778L38.2828 21.777L40.066 3.96166L38.076 3.76246ZM34.8186 4.86206H39.071V2.86206H34.8186V4.86206ZM33.6874 25.203L35.8136 3.96166L33.8236 3.76246L31.6974 25.0038L33.6874 25.203ZM36.9448 24.1034H32.6924V26.1034H36.9448V24.1034ZM35.9492 25.0101L35.9492 25.0101L37.9404 25.1968L37.9404 25.1968L35.9492 25.0101ZM41.9531 24.1034H36.9448V26.1034H41.9531V24.1034ZM41.3128 21.5745L40.9585 25.0005L42.9478 25.2063L43.3022 21.7803L41.3128 21.5745ZM37.2877 22.6774H42.3075V20.6774H37.2877V22.6774Z" fill="#093A67" mask="url(#path-13-inside-3)"/>
<path fill-rule="evenodd" clip-rule="evenodd" d="M38.1093 2.89655H33.8569L31.7307 24.1379H34.6131V24.138H40.9917L41.3461 20.7119H36.3261L38.1093 2.89655Z" fill="white"/>
</g>
<defs>
<filter id="filter0_d" x="26.7307" y="0.896545" width="53.2693" height="32.2069" filterUnits="userSpaceOnUse" color-interpolation-filters="sRGB">
<feFlood flood-opacity="0" result="BackgroundImageFix"/>
<feColorMatrix in="SourceAlpha" type="matrix" values="0 0 0 0 0 0 0 0 0 0 0 0 0 0 0 0 0 0 127 0" result="hardAlpha"/>
<feOffset dy="3"/>
<feGaussianBlur stdDeviation="2.5"/>
<feComposite in2="hardAlpha" operator="out"/>
<feColorMatrix type="matrix" values="0 0 0 0 0.493142 0 0 0 0 0.194618 0 0 0 0 0.791667 0 0 0 0.35 0"/>
<feBlend mode="normal" in2="BackgroundImageFix" result="effect1_dropShadow"/>
<feBlend mode="normal" in="SourceGraphic" in2="effect1_dropShadow" result="shape"/>
</filter>
<linearGradient id="paint0_linear" x1="6.73069" y1="3.86206" x2="6.73069" y2="25.1035" gradientUnits="userSpaceOnUse">
<stop stop-color="#6EFDDB" stop-opacity="0.89"/>
<stop offset="1" stop-color="#38E8BE"/>
</linearGradient>
<linearGradient id="paint1_linear" x1="17.3077" y1="3.86206" x2="17.3077" y2="25.1034" gradientUnits="userSpaceOnUse">
<stop stop-color="#6EFDDB" stop-opacity="0.89"/>
<stop offset="1" stop-color="#38E8BE"/>
</linearGradient>
</defs>
</svg>
