<svg width="148" height="64" viewBox="0 0 148 64" fill="none" xmlns="http://www.w3.org/2000/svg">
<path d="M147.537 32.2377C147.537 34.7723 145.918 36.8 143.895 36.8L37.2773 36.8C35.2542 36.8 33.6357 34.7723 33.6357 32.2377C33.6357 29.703 35.2542 27.6753 37.2773 27.6753L143.693 27.6753C145.716 27.4218 147.537 29.703 147.537 32.2377Z" fill="url(#paint0_linear_3341_104201)"/>
<path d="M4.5625 32L28.3882 45.6871L51.9605 59.3743L51.9605 32L51.9605 4.62574L28.3882 18.3129L4.5625 32Z" fill="#38E8BE"/>
<defs>
<linearGradient id="paint0_linear_3341_104201" x1="33.6357" y1="32.228" x2="147.537" y2="32.228" gradientUnits="userSpaceOnUse">
<stop stop-color="#38E8BE"/>
<stop offset="1" stop-color="#38E8BE" stop-opacity="0"/>
</linearGradient>
</defs>
</svg>
