<svg width="146" height="185" viewBox="0 0 146 185" fill="none" xmlns="http://www.w3.org/2000/svg">
<path d="M79.4978 12.9231C79.4978 6.33174 74.1917 0.949463 67.6076 0.949463H66.7555C58.4285 0.949463 51.6894 7.73581 51.6894 16.1212L51.0698 36.5973L49.6755 81.7226C49.3656 83.1267 49.172 114.484 49.172 114.484C46.5383 111.793 43.5948 108.673 40.9612 105.709C34.803 98.8055 23.4938 94.1643 16.0188 93.2672C12.0684 92.7992 9.04739 93.3452 7.03341 94.8663C6.375 95.3733 5.75531 95.9194 5.17436 96.5044C1.30133 100.366 -1.64217 106.567 1.06895 111.091C2.23086 113.08 4.24483 114.406 6.375 115.771C9.20231 117.604 13.9661 119.633 17.5681 124.235C23.5712 131.957 37.4754 149.235 45.9961 158.479C47.7777 159.61 51.5345 163.354 53.3161 164.329C58.6996 167.8 63.1149 171.076 64.6254 172.831C65.826 174.196 72.8749 177.863 72.8749 177.863C78.5683 181.49 88.948 184.922 100.954 184.922C112.922 184.922 123.805 185.663 131.822 178.526H132.248L132.442 177.98C140.614 170.452 145.688 160 145.688 148.416C145.688 145.569 145.688 135.038 145.688 133.049V93.2282C145.688 90.5371 145.107 81.4496 137.516 78.7195C133.875 77.4324 130.428 77.9004 127.485 79.1875L126.787 79.2265H126.594C125.277 74.2342 121.985 71.0361 117.105 70.178C111.218 69.164 107.151 70.9191 104.711 72.7132C102.271 67.4479 97.3912 64.6787 90.7683 65.2638C85.8108 65.6928 82.1315 68.1499 79.4591 71.3871V37.3773V12.9231H79.4978Z" fill="url(#paint0_linear_3341_104220)"/>
<defs>
<linearGradient id="paint0_linear_3341_104220" x1="72.8522" y1="0.949463" x2="72.8522" y2="184.944" gradientUnits="userSpaceOnUse">
<stop stop-color="#38E8BE"/>
<stop offset="1" stop-color="#38E8BE" stop-opacity="0"/>
</linearGradient>
</defs>
</svg>
