<svg width="40" height="40" fill="none" xmlns="http://www.w3.org/2000/svg">
    <rect width="40" height="40" rx="5" fill="#FA3D3D"/>
    <path d="M12 12h16c1.1 0 2 .9 2 2v12c0 1.1-.9 2-2 2H12c-1.1 0-2-.9-2-2V14c0-1.1.9-2 2-2z" fill="#FEFEFE"/>
    <path d="m30 14-10 7-10-7" fill="#FEFEFE"/>
    <path d="m30 14-10 7-10-7" stroke="#FA3D3D" stroke-linecap="round" stroke-linejoin="round"/>
</svg>
