<svg width="41" height="40" fill="none" xmlns="http://www.w3.org/2000/svg">
    <rect x=".5" width="40" height="40" rx="5" fill="#11BB19"/>
    <path fill-rule="evenodd" clip-rule="evenodd" d="M32.5 19.69C32.5 13.24 27.219 8 20.719 8c-6.5 0-11.782 5.24-11.782 11.69 0 2.124.579 4.217 1.688 6.031L8.5 32.001l6.515-2.078a11.86 11.86 0 0 0 5.704 1.457c6.5 0 11.78-5.24 11.78-11.69zm-11.78 9.737c5.405 0 9.812-4.372 9.812-9.736 0-5.365-4.407-9.737-9.813-9.737-5.406 0-9.812 4.372-9.812 9.737 0 2.046.656 4.046 1.875 5.705l-1.235 3.612 3.781-1.193a9.932 9.932 0 0 0 5.391 1.612zm3.17-8.218c.266 0 2.813 1.318 2.923 1.504.03.078.03.17.03.233 0 .387-.124.821-.265 1.178-.36.868-1.812 1.427-2.703 1.427-.75 0-2.297-.652-2.969-.962-2.234-1.008-3.625-2.729-4.968-4.697-.594-.869-1.125-1.938-1.11-3.008v-.124c.031-1.024.406-1.752 1.156-2.45.235-.217.485-.34.813-.34.092 0 .184.01.277.022.098.011.197.024.301.024.422 0 .5.124.656.527.11.263.907 2.372.907 2.527 0 .331-.341.687-.64.998-.232.243-.439.458-.439.614 0 .078.032.155.079.233.343.729 1 1.566 1.593 2.124.72.682 1.485 1.132 2.36 1.566a.69.69 0 0 0 .343.108c.243 0 .57-.403.885-.792.293-.362.576-.712.772-.712z" fill="#FEFEFE"/>
</svg>
