<svg width="82" height="20" viewBox="0 0 82 20" fill="none" xmlns="http://www.w3.org/2000/svg">
<path d="M71.4452 12.0356C71.3739 12.106 71.2891 12.1613 71.196 12.1982C71.1028 12.2351 71.0032 12.2529 70.903 12.2505C70.8033 12.2529 70.7041 12.2344 70.6119 12.1963C70.5197 12.1581 70.4364 12.1012 70.3675 12.029C70.2976 11.9587 70.2426 11.875 70.2057 11.783C70.1688 11.691 70.1507 11.5926 70.1526 11.4935C70.1507 11.3944 70.1688 11.2959 70.2057 11.2039C70.2426 11.1119 70.2976 11.0282 70.3675 10.9579C70.4364 10.8858 70.5197 10.8288 70.6119 10.7907C70.7041 10.7525 70.8033 10.734 70.903 10.7364C71.0038 10.7343 71.1038 10.7529 71.1971 10.791C71.2903 10.8291 71.3748 10.8859 71.4452 10.9579C71.5172 11.0284 71.574 11.1128 71.6121 11.2061C71.6502 11.2993 71.6688 11.3994 71.6667 11.5001C71.6691 11.5998 71.6506 11.699 71.6125 11.7912C71.5743 11.8834 71.5174 11.9667 71.4452 12.0356V12.0356Z" fill="#F7ACB7"/>
<path d="M74.328 4.55421C74.3308 4.66081 74.3117 4.76687 74.2719 4.8658C74.2321 4.96474 74.1724 5.05447 74.0966 5.12945C74.0226 5.20478 73.934 5.26418 73.8362 5.30397C73.7384 5.34377 73.6335 5.36313 73.528 5.36086C73.4224 5.36313 73.3175 5.34377 73.2197 5.30397C73.1219 5.26418 73.0333 5.20478 72.9593 5.12945C72.8835 5.05447 72.8238 4.96474 72.784 4.8658C72.7442 4.76687 72.7251 4.66081 72.7279 4.55421C72.7251 4.4476 72.7442 4.34155 72.784 4.24261C72.8238 4.14367 72.8835 4.05395 72.9593 3.97897C73.0333 3.90364 73.1219 3.84424 73.2197 3.80444C73.3175 3.76464 73.4224 3.74528 73.528 3.74755C73.6335 3.74528 73.7384 3.76464 73.8362 3.80444C73.934 3.84424 74.0226 3.90364 74.0966 3.97897C74.1724 4.05395 74.2321 4.14367 74.2719 4.24261C74.3117 4.34155 74.3308 4.4476 74.328 4.55421V4.55421ZM72.8932 12.2538V6.16421H74.1528V12.2505H72.8932V12.2538Z" fill="#F7ACB7"/>
<path d="M76.0735 11.4636C75.5104 10.843 75.2125 10.0266 75.2437 9.18913C75.2088 8.35822 75.5048 7.54739 76.0669 6.93446C76.3278 6.65329 76.6455 6.43069 76.9988 6.28138C77.3521 6.13207 77.7331 6.05944 78.1166 6.0683C78.561 6.06046 78.999 6.17482 79.3828 6.39889C79.7355 6.60464 80.0275 6.90006 80.2291 7.25514V4.08472H81.4986V12.2604H80.2291V11.1231C80.0291 11.4918 79.7362 11.8018 79.3795 12.0223C78.9996 12.25 78.5627 12.3647 78.1199 12.3529C77.735 12.3601 77.353 12.2844 77 12.131C76.6469 11.9775 76.3309 11.7499 76.0735 11.4636ZM79.6803 10.7C79.8668 10.4995 80.0112 10.2637 80.1049 10.0064C80.1986 9.7492 80.2397 9.47578 80.2258 9.20235C80.2397 8.92993 80.1986 8.65749 80.1049 8.40131C80.0112 8.14514 79.8668 7.91048 79.6803 7.71136C79.5134 7.5349 79.3119 7.39479 79.0883 7.29979C78.8647 7.2048 78.624 7.15696 78.3811 7.15926C78.1391 7.15666 77.899 7.20339 77.6757 7.29661C77.4523 7.38982 77.2502 7.52757 77.0819 7.70144C76.8944 7.89784 76.7493 8.13063 76.6555 8.38539C76.5616 8.64015 76.5211 8.91145 76.5364 9.18251C76.5234 9.45735 76.5649 9.73204 76.6585 9.99077C76.7521 10.2495 76.896 10.4871 77.0819 10.69C77.2464 10.8706 77.4472 11.0146 77.671 11.1125C77.8948 11.2105 78.1368 11.2603 78.3811 11.2587C78.6246 11.2607 78.8658 11.2121 79.0895 11.1159C79.3131 11.0197 79.5144 10.8781 79.6803 10.7V10.7Z" fill="#F7ACB7"/>
<path d="M14.8669 11.4901C14.5846 11.1837 14.366 10.8243 14.2235 10.4327C14.0811 10.0411 14.0177 9.62523 14.0371 9.20902C14.0176 8.79253 14.0812 8.37633 14.2243 7.98469C14.3673 7.59304 14.5869 7.2338 14.8702 6.92791C15.1483 6.64203 15.4832 6.41757 15.8533 6.26895C16.2234 6.12034 16.6205 6.05088 17.0191 6.06505C17.6691 6.04005 18.3099 6.2243 18.8473 6.5907C19.3463 6.95531 19.6981 7.4866 19.8391 8.0883H18.4803C18.3851 7.78674 18.1895 7.52685 17.926 7.35184C17.6626 7.17683 17.3473 7.09723 17.0323 7.12627C16.7987 7.11651 16.566 7.16063 16.3522 7.25522C16.1383 7.3498 15.9491 7.49233 15.7992 7.67175C15.4691 8.11121 15.3062 8.65381 15.3397 9.20241C15.3075 9.75189 15.4702 10.2951 15.7992 10.7364C15.9481 10.9174 16.137 11.0614 16.3509 11.1572C16.5649 11.253 16.7981 11.2979 17.0323 11.2885C17.3468 11.3151 17.6611 11.2345 17.924 11.0598C18.1869 10.8851 18.383 10.6267 18.4803 10.3264H19.8259C19.6694 10.915 19.3202 11.4341 18.8341 11.8009C18.3071 12.1779 17.67 12.3697 17.0224 12.3464C16.6232 12.3625 16.225 12.2947 15.8537 12.1472C15.4824 11.9997 15.1462 11.7758 14.8669 11.4901Z" fill="#E80F8A"/>
<path d="M23.5021 12.3529C23.1025 12.368 22.7041 12.299 22.3328 12.1504C21.9615 12.0018 21.6255 11.7768 21.3467 11.4901C21.064 11.1825 20.8452 10.822 20.7027 10.4293C20.5603 10.0366 20.4971 9.61959 20.5169 9.20235C20.4969 8.78527 20.561 8.36843 20.7052 7.97658C20.8495 7.58472 21.071 7.22584 21.3566 6.92123C21.6397 6.63608 21.979 6.41277 22.3528 6.26539C22.7267 6.11801 23.127 6.04977 23.5286 6.06499C23.9254 6.04905 24.3213 6.11379 24.6924 6.25528C25.0634 6.39677 25.4019 6.61208 25.6874 6.88817C25.9653 7.17054 26.1824 7.50694 26.3251 7.87656C26.4679 8.24618 26.5332 8.64116 26.5172 9.03705C26.5185 9.23623 26.5041 9.4352 26.4742 9.63212H21.8095C21.8155 10.0869 21.9994 10.5213 22.3219 10.8421C22.64 11.1403 23.063 11.3007 23.4988 11.2884C23.7978 11.31 24.0963 11.2403 24.3549 11.0886C24.6134 10.9369 24.8198 10.7103 24.9469 10.4388H26.3056C26.1295 10.9909 25.7821 11.4726 25.3138 11.8141C24.7852 12.1871 24.1487 12.3765 23.5021 12.3529V12.3529ZM24.7055 7.57582C24.3849 7.2796 23.9617 7.11956 23.5253 7.12951C23.3109 7.12312 23.0974 7.15927 22.8971 7.23588C22.6968 7.31248 22.5137 7.42802 22.3583 7.57582C22.0359 7.89471 21.8447 8.32292 21.8227 8.77588H25.2047C25.2114 8.55139 25.1704 8.32805 25.0843 8.1206C24.9983 7.91316 24.8691 7.72634 24.7055 7.57251V7.57582Z" fill="#E80F8A"/>
<path d="M27.6115 12.2538V4.07819H28.871V12.2538H27.6115Z" fill="#E80F8A"/>
<path d="M32.9472 12.353C32.5475 12.3681 32.1492 12.2991 31.7778 12.1504C31.4065 12.0018 31.0706 11.7768 30.7917 11.4901C30.5091 11.1826 30.2902 10.822 30.1478 10.4293C30.0054 10.0367 29.9422 9.61965 29.9619 9.2024C29.942 8.78532 30.0061 8.36848 30.1503 7.97663C30.2945 7.58478 30.516 7.2259 30.8016 6.92128C31.0848 6.63614 31.424 6.41282 31.7979 6.26544C32.1717 6.11806 32.5721 6.04982 32.9737 6.06504C33.3707 6.04954 33.7668 6.1148 34.1378 6.25686C34.5089 6.39893 34.8473 6.61484 35.1325 6.89153C35.4104 7.1739 35.6275 7.5103 35.7702 7.87992C35.9129 8.24954 35.9783 8.64451 35.9623 9.04041C35.9636 9.23959 35.9492 9.43856 35.9193 9.63548H31.2579C31.2638 10.0903 31.4478 10.5247 31.7703 10.8455C32.0884 11.1436 32.5114 11.304 32.9472 11.2918C33.2462 11.3133 33.5447 11.2436 33.8032 11.0919C34.0618 10.9402 34.2682 10.7137 34.3952 10.4421H35.754C35.5779 10.9943 35.2305 11.476 34.7622 11.8174C34.2322 12.19 33.5946 12.3782 32.9472 12.353V12.353ZM34.1506 7.57587C33.83 7.27965 33.4068 7.11962 32.9704 7.12956C32.756 7.12318 32.5425 7.15933 32.3422 7.23593C32.1419 7.31253 31.9587 7.42808 31.8034 7.57587C31.4809 7.89476 31.2898 8.32298 31.2678 8.77593H34.6498C34.6565 8.55145 34.6154 8.3281 34.5294 8.12066C34.4433 7.91321 34.3142 7.72639 34.1506 7.57256V7.57587Z" fill="#E80F8A"/>
<path d="M40.4353 6.06506C40.8178 6.05609 41.1979 6.12869 41.5501 6.27804C41.9024 6.42739 42.2189 6.65005 42.4784 6.93122C43.0368 7.54595 43.3302 8.35614 43.2949 9.18589C43.3266 10.0222 43.0313 10.838 42.4718 11.4604C42.2158 11.7467 41.901 11.9744 41.549 12.1279C41.197 12.2813 40.8159 12.357 40.432 12.3497C39.9893 12.3612 39.5524 12.2466 39.1724 12.0191C38.8144 11.7969 38.5187 11.4875 38.3129 11.1199V12.2571H37.0533V4.08148H38.3129V7.2519C38.5198 6.89754 38.8147 6.60261 39.1691 6.39566C39.5529 6.17158 39.9909 6.05723 40.4353 6.06506ZM41.4634 10.6934C41.6512 10.4916 41.7968 10.2542 41.8916 9.99537C41.9864 9.73649 42.0286 9.46128 42.0155 9.18589C42.0308 8.91483 41.9903 8.64352 41.8964 8.38876C41.8026 8.13401 41.6575 7.90122 41.4701 7.70482C41.3011 7.53085 41.0984 7.39307 40.8745 7.29986C40.6506 7.20666 40.41 7.15997 40.1675 7.16264C39.9241 7.16027 39.6828 7.20807 39.4587 7.30306C39.2346 7.39805 39.0325 7.53819 38.865 7.71474C38.6784 7.91375 38.5339 8.14839 38.4401 8.40459C38.3464 8.66079 38.3054 8.93328 38.3195 9.20573C38.3054 9.47917 38.3465 9.75265 38.4402 10.0099C38.5339 10.2672 38.6783 10.503 38.865 10.7033C39.0309 10.8815 39.2322 11.0231 39.4558 11.1193C39.6795 11.2155 39.9207 11.2641 40.1642 11.262C40.4086 11.2622 40.6504 11.2115 40.8741 11.113C41.0978 11.0145 41.2985 10.8705 41.4634 10.6901V10.6934Z" fill="#E80F8A"/>
<path d="M45.662 6.16419V7.2221C45.8143 6.86835 46.0694 6.56855 46.3943 6.36162C46.7191 6.1547 47.0986 6.05021 47.4836 6.06171V7.36425H47.153C46.9506 7.34981 46.7472 7.37568 46.5549 7.44038C46.3625 7.50507 46.1849 7.6073 46.0323 7.74114C45.7788 7.99239 45.6521 8.42657 45.6521 9.04369V12.2472H44.3925V6.16419H45.6521H45.662Z" fill="#E80F8A"/>
<path d="M49.9366 4.55421C49.9394 4.66081 49.9203 4.76687 49.8805 4.8658C49.8407 4.96474 49.781 5.05447 49.7052 5.12945C49.6312 5.20478 49.5426 5.26418 49.4448 5.30397C49.347 5.34377 49.2421 5.36313 49.1366 5.36086C49.031 5.36294 48.9262 5.34349 48.8284 5.3037C48.7307 5.26391 48.642 5.20462 48.5679 5.12945C48.4921 5.05447 48.4324 4.96474 48.3926 4.8658C48.3528 4.76687 48.3337 4.66081 48.3365 4.55421C48.3337 4.4476 48.3528 4.34155 48.3926 4.24261C48.4324 4.14367 48.4921 4.05395 48.5679 3.97897C48.6419 3.90364 48.7305 3.84424 48.8283 3.80444C48.9261 3.76464 49.031 3.74528 49.1366 3.74755C49.2421 3.74528 49.347 3.76464 49.4448 3.80444C49.5426 3.84424 49.6312 3.90364 49.7052 3.97897C49.781 4.05395 49.8407 4.14367 49.8805 4.24261C49.9203 4.34155 49.9394 4.4476 49.9366 4.55421V4.55421ZM48.4985 12.2538V6.16421H49.7581V12.2505H48.4985V12.2538Z" fill="#E80F8A"/>
<path d="M54.2079 7.19237H52.7268V10.5612C52.7192 10.6499 52.7297 10.7393 52.7575 10.824C52.7853 10.9086 52.83 10.9868 52.8888 11.0537C53.0462 11.1686 53.2404 11.2216 53.4343 11.2025H54.2079V12.2505H53.2161C52.0458 12.2505 51.4606 11.6874 51.4606 10.5612V7.19237H50.7432V6.16422H51.4606V4.65009H52.7301V6.16422H54.2079V7.19237V7.19237Z" fill="#E80F8A"/>
<path d="M56.6775 4.55421C56.6803 4.66081 56.6612 4.76687 56.6214 4.8658C56.5816 4.96474 56.5219 5.05447 56.4461 5.12945C56.3721 5.20478 56.2835 5.26418 56.1857 5.30397C56.0879 5.34377 55.983 5.36313 55.8775 5.36086C55.7719 5.36294 55.6671 5.34349 55.5693 5.3037C55.4715 5.26391 55.3829 5.20462 55.3088 5.12945C55.233 5.05447 55.1733 4.96474 55.1335 4.8658C55.0937 4.76687 55.0746 4.66081 55.0774 4.55421C55.0746 4.4476 55.0937 4.34155 55.1335 4.24261C55.1733 4.14367 55.233 4.05395 55.3088 3.97897C55.3828 3.90364 55.4714 3.84424 55.5692 3.80444C55.667 3.76464 55.7719 3.74528 55.8775 3.74755C55.983 3.74528 56.0879 3.76464 56.1857 3.80444C56.2835 3.84424 56.3721 3.90364 56.4461 3.97897C56.5219 4.05395 56.5816 4.14367 56.6214 4.24261C56.6612 4.34155 56.6803 4.4476 56.6775 4.55421V4.55421ZM55.2394 12.2538V6.16421H56.499V12.2505H55.2394V12.2538Z" fill="#E80F8A"/>
<path d="M60.5752 12.3529C60.1755 12.368 59.7771 12.299 59.4058 12.1504C59.0345 12.0018 58.6986 11.7768 58.4197 11.4901C58.1371 11.1825 57.9182 10.822 57.7758 10.4293C57.6334 10.0366 57.5702 9.61959 57.5899 9.20235C57.5698 8.78525 57.6338 8.36836 57.778 7.97648C57.9223 7.5846 58.1439 7.22573 58.4296 6.92123C58.7124 6.6365 59.0511 6.41343 59.4243 6.26606C59.7976 6.11869 60.1973 6.05023 60.5983 6.06499C60.9951 6.04905 61.3911 6.11379 61.7621 6.25528C62.1332 6.39677 62.4717 6.61208 62.7571 6.88817C63.0351 7.17054 63.2521 7.50694 63.3949 7.87656C63.5376 8.24618 63.603 8.64116 63.5869 9.03705C63.5882 9.23623 63.5739 9.4352 63.544 9.63212H58.8826C58.8851 10.0932 59.0706 10.5343 59.3983 10.8586C59.7164 11.1568 60.1394 11.3172 60.5752 11.3049C60.8741 11.326 61.1724 11.2562 61.4309 11.1045C61.6893 10.9529 61.8958 10.7265 62.0232 10.4553H63.382C63.2057 11.0074 62.8583 11.489 62.3902 11.8306C61.8586 12.1985 61.221 12.382 60.5752 12.3529V12.3529ZM61.7786 7.57582C61.4569 7.27909 61.0325 7.11905 60.595 7.12951C60.3807 7.1233 60.1672 7.15954 59.967 7.23613C59.7667 7.31273 59.5835 7.42817 59.428 7.57582C59.1056 7.89471 58.9145 8.32292 58.8925 8.77588H62.2745C62.2816 8.55164 62.241 8.32844 62.1556 8.12101C62.0701 7.91358 61.9416 7.72664 61.7786 7.57251V7.57582Z" fill="#E80F8A"/>
<path d="M64.4101 7.90976C64.4101 7.65314 64.4699 7.40005 64.5846 7.17052C64.6994 6.941 64.866 6.74134 65.0713 6.58737C65.5591 6.21966 66.1605 6.0348 66.7706 6.06503C67.3774 6.03254 67.9758 6.21908 68.4566 6.59068C68.663 6.76794 68.8289 6.98751 68.9429 7.23449C69.057 7.48148 69.1167 7.7501 69.1178 8.02216H67.8252C67.8197 7.88821 67.7877 7.75669 67.7309 7.63524C67.6741 7.51378 67.5938 7.40482 67.4946 7.31468C67.2727 7.1333 66.9905 7.04239 66.7045 7.06012C66.4207 7.04359 66.1397 7.12403 65.9077 7.28824C65.8158 7.35729 65.7417 7.44734 65.6917 7.55086C65.6416 7.65438 65.6171 7.76837 65.6201 7.88331C65.6223 8.00372 65.6573 8.12124 65.7214 8.2232C65.7855 8.32516 65.8762 8.40768 65.9838 8.46185C66.2608 8.61429 66.5614 8.71932 66.8731 8.77262C67.2213 8.83873 67.5706 8.92028 67.9211 9.01725C68.2603 9.10702 68.5681 9.28896 68.8104 9.54291C69.0621 9.82181 69.1929 10.1892 69.174 10.5644C69.1785 10.8177 69.1206 11.0681 69.0052 11.2935C68.8899 11.519 68.7208 11.7126 68.5128 11.8571C68.0093 12.2057 67.4055 12.3799 66.7937 12.353C66.1946 12.3774 65.6045 12.2005 65.1176 11.8505C64.8993 11.6763 64.722 11.4564 64.598 11.2062C64.474 10.956 64.4065 10.6816 64.4002 10.4025H65.7028C65.7071 10.5366 65.7387 10.6685 65.7955 10.7901C65.8523 10.9117 65.9332 11.0205 66.0334 11.1099C66.2637 11.2898 66.5514 11.3803 66.8433 11.3645C67.1328 11.3811 67.4197 11.3021 67.6599 11.1397C67.7562 11.0722 67.8344 10.982 67.8874 10.877C67.9405 10.772 67.9668 10.6556 67.964 10.538C67.9631 10.4165 67.9286 10.2975 67.8644 10.1943C67.8003 10.0911 67.7089 10.0075 67.6004 9.95284C67.3238 9.79515 67.0235 9.6835 66.7111 9.62225C66.3606 9.55172 66.0102 9.47017 65.6598 9.37761C65.3293 9.29071 65.0281 9.11725 64.787 8.8751C64.6624 8.74786 64.5648 8.59677 64.5001 8.43089C64.4353 8.265 64.4047 8.08775 64.4101 7.90976Z" fill="#E80F8A"/>
<path d="M7.67315 2.98714C8.07647 3.50287 10.0964 6.09144 10.4171 6.35923L10.4865 6.41874C10.837 6.71958 11.1477 6.91794 11.8816 6.55759C12.5131 6.22699 14.6091 4.87154 14.6983 4.81204C15.6339 4.15084 15.9678 3.86653 15.7661 3.51609C15.5645 3.16566 15.224 3.25162 13.0652 4.21696C12.6255 4.41201 12.2221 4.59384 11.9676 4.69302C11.8077 4.76152 11.6296 4.77532 11.461 4.73228C11.2925 4.68924 11.1428 4.59177 11.0353 4.45499C11.0353 4.45499 8.01366 1.14903 7.54752 0.64652C7.23345 0.296088 6.76401 -0.143608 6.29456 0.0448319C5.82511 0.233272 5.75238 1.01017 5.77552 1.65153C5.82511 3.05657 6.00363 5.70795 6.08628 6.73611C6.12278 6.88628 6.10203 7.04466 6.02807 7.18035C5.95411 7.31605 5.83225 7.41933 5.68626 7.47003C5.53418 7.52954 1.93399 8.93127 0.796739 9.49989C0.598381 9.59907 0 9.89661 0 10.4256C0 10.9545 0.482671 11.2091 0.899223 11.4174C1.47446 11.705 5.62675 12.7397 6.36398 12.8951C6.496 12.9109 6.61649 12.978 6.6994 13.082C6.78231 13.1859 6.82095 13.3183 6.80698 13.4505C6.80698 13.4803 6.96566 16.3862 7.27643 18.4095C7.4285 19.4013 7.67314 19.874 8.09631 19.9798C8.14713 19.9925 8.19929 19.9992 8.25169 19.9996C8.73105 19.9996 9.13769 19.4542 9.44514 19.0475C9.96418 18.3566 11.8882 15.1035 12.2221 14.4886C12.447 14.0687 12.9263 14.2406 13.0619 14.2968C15.2008 14.9084 15.4719 14.6572 15.5678 14.3464C15.6637 14.0357 15.3595 13.7084 14.6058 13.4604L14.0735 13.2786C13.4553 13.0637 12.6089 12.7695 12.2486 12.6901C12.0219 12.6558 11.7905 12.7036 11.5959 12.8248C11.4014 12.9461 11.2565 13.1328 11.1874 13.3513C11.0221 13.6158 9.70631 15.7151 8.89635 16.7598C8.82928 16.8523 8.75161 16.9366 8.66493 17.011C8.62164 16.8785 8.59715 16.7405 8.5922 16.6011C8.5922 16.6011 8.48641 13.553 8.44013 12.7232C8.38723 11.7314 7.69629 11.4339 7.37891 11.4008C7.35577 11.4008 4.88291 10.9446 3.37208 10.5214C3.16512 10.4736 2.96668 10.3945 2.78362 10.2867C3.00352 10.1388 3.24573 10.0272 3.50101 9.95612C3.62003 9.91314 6.45655 8.87507 7.05493 8.63373C7.88472 8.30313 7.9244 7.59896 7.83844 7.3444C7.83844 7.31134 7.47809 3.9624 7.45165 3.04665C7.44663 2.96849 7.44663 2.89009 7.45165 2.81193C7.53066 2.86347 7.6048 2.92212 7.67315 2.98714Z" fill="#E80F8A"/>
</svg>
