<svg width="20" height="20" viewBox="0 0 20 20" fill="none" xmlns="http://www.w3.org/2000/svg">
<rect width="20" height="20" rx="4" fill="#2B2B2B" fill-opacity="0.54"/>
<path d="M13.875 16.125H5.125C4.43464 16.125 3.875 15.5654 3.875 14.875V6.125C3.875 5.43464 4.43464 4.875 5.125 4.875H13.875C14.5654 4.875 15.125 5.43464 15.125 6.125V14.875C15.125 15.5654 14.5654 16.125 13.875 16.125ZM5.125 6.125V14.875H13.875V6.125H5.125ZM13.25 13.625H5.75L7.625 11.125L8.25 11.75L10.125 9.25L13.25 13.625ZM7.3125 9.875C6.79473 9.875 6.375 9.45527 6.375 8.9375C6.375 8.41973 6.79473 8 7.3125 8C7.83027 8 8.25 8.41973 8.25 8.9375C8.25 9.45527 7.83027 9.875 7.3125 9.875Z" fill="#D9D9D9"/>
</svg>
