<svg width="59" height="20" viewBox="0 0 59 20" fill="none" xmlns="http://www.w3.org/2000/svg">
<path d="M11.5181 8.09342V0.207153H13.801V12.0366H11.7257L6.32979 4.15029V12.0366H4.25446V0.207153H6.32979L11.5181 8.09342Z" fill="#2D2D2B"/>
<path d="M17.9516 9.96114C18.5493 10.426 19.2301 10.3949 19.6119 10.3762C20.4724 10.3141 21.2822 9.94602 21.8948 9.33854C22.1708 9.89265 22.4489 10.4447 22.7249 10.9988C22.3368 11.2748 20.442 12.5615 18.1592 12.0365C17.7005 11.9306 16.5134 11.6567 15.6688 10.5837C15.015 9.75361 14.9092 8.87781 14.8386 8.30087C14.7619 7.66167 14.4879 5.3954 16.0838 3.94267C16.7764 3.33087 17.6522 2.96595 18.5742 2.905C19.4509 2.82552 20.3286 3.04495 21.0646 3.5276C21.5985 3.89589 22.0275 4.39647 22.3098 4.98034C22.6585 5.71086 22.6896 6.43307 22.7249 7.26321C22.7394 7.60979 22.7249 7.89826 22.7249 8.09334H17.1215C17.1194 8.23239 17.1132 9.30948 17.9516 9.96114ZM20.027 5.18787C19.7186 4.89595 19.3102 4.73326 18.8855 4.73326C18.4609 4.73326 18.0525 4.89595 17.7441 5.18787C17.5939 5.35632 17.4797 5.55362 17.4083 5.76771C17.3369 5.98181 17.31 6.2082 17.329 6.43307H20.442C20.4611 6.2082 20.4342 5.98181 20.3628 5.76771C20.2914 5.55362 20.1772 5.35632 20.027 5.18787Z" fill="#2D2D2B"/>
<path d="M25.2153 2.90509C25.6996 4.73138 26.1838 6.55768 26.668 8.38397C27.2215 6.55768 27.7749 4.73138 28.3283 2.90509H30.1961L32.0639 8.38397C32.5482 6.55768 33.0324 4.73138 33.5167 2.90509H35.7995C34.9002 5.94891 34.0009 8.99274 33.1016 12.0366H31.2338L29.366 6.3543L27.4982 12.0366H25.6304L22.7249 2.90509H25.2153Z" fill="#2D2D2B"/>
<path d="M37.8749 9.88857C38.1222 10.2313 38.4954 10.4619 38.9126 10.5298C39.4916 10.6772 40.4877 10.673 40.7804 10.1023C40.8324 9.98176 40.8593 9.85181 40.8593 9.72047C40.8593 9.58913 40.8324 9.45918 40.7804 9.33861C40.6413 9.02938 40.3528 8.87996 39.9502 8.71601C38.9914 8.32584 38.676 8.38603 37.8749 8.0934C37.3706 7.9087 36.8663 7.71984 36.4222 7.26327C36.3205 7.1595 35.8224 6.62822 35.7995 6.01807V5.98694C35.7953 5.64039 35.8661 5.29703 36.0071 4.9804C36.1937 4.57117 36.4789 4.21463 36.8372 3.94274C37.2068 3.65456 37.6301 3.4429 38.0824 3.32014C38.4856 3.19268 38.9048 3.12281 39.3276 3.1126C39.9739 3.1049 40.6132 3.24697 41.1954 3.52767C41.5358 3.69785 42.8246 4.33497 43.0632 5.603C43.114 5.87739 43.114 6.15875 43.0632 6.43314H40.9879C41.0093 6.14135 40.9365 5.85039 40.7804 5.603C40.6365 5.40848 40.4487 5.25069 40.2324 5.1425C40.016 5.03431 39.7771 4.97877 39.5352 4.9804C39.342 4.9665 39.1483 4.99664 38.9686 5.06854C38.7888 5.14044 38.6277 5.25223 38.4975 5.39547C38.4684 5.43075 38.1405 5.85827 38.29 6.2256C38.4062 6.512 38.7361 6.57841 39.7427 6.8482C40.5873 7.07442 41.0107 7.18648 41.1954 7.26327C41.7475 7.48948 42.5817 7.83399 42.8557 8.50847C42.9854 8.84955 43.0556 9.21036 43.0632 9.57519C43.0632 9.6084 43.0632 9.66443 43.0632 9.73707C43.0531 10.1156 42.9588 10.487 42.7872 10.8245C42.6065 11.1751 42.3446 11.4775 42.0235 11.7066C41.6758 11.9516 41.2817 12.1232 40.8654 12.2109C40.7949 12.2254 40.6579 12.2586 40.4836 12.2877C40.1206 12.3451 39.7532 12.3701 39.3857 12.3624C38.6469 12.3375 37.1029 12.2856 36.2146 11.1711C35.8826 10.7338 35.6683 10.2186 35.592 9.67481C35.5604 9.42538 35.5604 9.17296 35.592 8.92354H37.6674C37.6233 9.25952 37.6967 9.60038 37.8749 9.88857V9.88857Z" fill="#2D2D2B"/>
<path d="M2.49039 3.73523H0.20752V12.0366H2.49039V3.73523Z" fill="#DE2127"/>
<path d="M1.34897 2.90509C2.09398 2.90509 2.69794 2.30114 2.69794 1.55612C2.69794 0.811107 2.09398 0.207153 1.34897 0.207153C0.603953 0.207153 0 0.811107 0 1.55612C0 2.30114 0.603953 2.90509 1.34897 2.90509Z" fill="#DE2127"/>
<path d="M55.9303 10.9989C55.5746 11.4964 55.0635 11.8614 54.4775 12.0366C54.0027 12.172 53.4996 12.172 53.0248 12.0366C52.542 11.8782 52.1115 11.5912 51.7796 11.2064C51.0943 10.4583 50.6591 9.51533 50.5344 8.5085C50.3627 7.36314 50.5821 6.19335 51.157 5.18797C51.4434 4.70649 51.9871 3.79542 53.0248 3.5277C53.4338 3.42727 53.861 3.42727 54.27 3.5277C54.9223 3.68208 55.5057 4.0467 55.9303 4.56537V-0.000366211H58.0056V12.0366H55.9303V10.9989ZM54.0625 10.5838C54.6186 10.7374 55.2599 10.4821 55.7227 9.96124V6.22564C55.575 5.96585 55.3599 5.75075 55.1001 5.60304C54.8505 5.45209 54.5613 5.37977 54.27 5.3955C54.064 5.42417 53.866 5.49409 53.6877 5.60107C53.5094 5.70804 53.3545 5.84988 53.2323 6.0181C53.0092 6.32375 52.8665 6.68056 52.8173 7.05577C52.6801 7.67081 52.6801 8.30853 52.8173 8.92357C52.8704 9.29773 53.0128 9.65362 53.2323 9.96124C53.4354 10.2521 53.7263 10.4703 54.0625 10.5838V10.5838Z" fill="#2D2D2B"/>
<path d="M49.393 3.73523H47.1101V12.0366H49.393V3.73523Z" fill="#2D2D2B"/>
<path d="M48.2515 2.90509C48.9965 2.90509 49.6005 2.30114 49.6005 1.55612C49.6005 0.811107 48.9965 0.207153 48.2515 0.207153C47.5065 0.207153 46.9025 0.811107 46.9025 1.55612C46.9025 2.30114 47.5065 2.90509 48.2515 2.90509Z" fill="#2D2D2B"/>
<path d="M45.0347 12.0366C45.6651 12.0366 46.1762 11.5255 46.1762 10.8951C46.1762 10.2647 45.6651 9.75369 45.0347 9.75369C44.4043 9.75369 43.8933 10.2647 43.8933 10.8951C43.8933 11.5255 44.4043 12.0366 45.0347 12.0366Z" fill="#2D2D2B"/>
<path d="M10.5302 17.0921L10.2999 18.1692H11.1217V18.7918H10.1691L9.92008 19.9436H9.24145L9.49049 18.7918H8.27019L8.02115 19.9436H7.34252L7.59156 18.7918H6.62653V18.1692H7.7223L7.95266 17.0921H6.99386V16.4695H8.08341L8.32623 15.3363H9.00486L8.76205 16.4695H9.98234L10.2252 15.3363H10.9038L10.661 16.4695H11.489V17.0921H10.5302ZM9.8516 17.0921H8.6313L8.40094 18.1692H9.62123L9.8516 17.0921Z" fill="#2D2D2B"/>
<path d="M12.9464 15.6165V19.9436H12.2366V15.6165H12.9464Z" fill="#2D2D2B"/>
<path d="M15.5157 16.457C15.7854 16.457 16.0262 16.5131 16.2379 16.6251C16.4537 16.7372 16.6218 16.9032 16.7422 17.1232C16.8625 17.3432 16.9227 17.6088 16.9227 17.9201V19.9436H16.2192V18.026C16.2192 17.7188 16.1424 17.4843 15.9888 17.3224C15.8353 17.1564 15.6256 17.0734 15.36 17.0734C15.0944 17.0734 14.8827 17.1564 14.725 17.3224C14.5714 17.4843 14.4946 17.7188 14.4946 18.026V19.9436H13.7848V16.5131H14.4946V16.9053C14.6108 16.7642 14.7582 16.6542 14.9366 16.5753C15.1193 16.4965 15.3123 16.457 15.5157 16.457Z" fill="#2D2D2B"/>
<path d="M18.0958 16.0586C17.9671 16.0586 17.8592 16.015 17.772 15.9278C17.6849 15.8407 17.6413 15.7327 17.6413 15.6041C17.6413 15.4754 17.6849 15.3675 17.772 15.2803C17.8592 15.1931 17.9671 15.1496 18.0958 15.1496C18.2203 15.1496 18.3262 15.1931 18.4133 15.2803C18.5005 15.3675 18.5441 15.4754 18.5441 15.6041C18.5441 15.7327 18.5005 15.8407 18.4133 15.9278C18.3262 16.015 18.2203 16.0586 18.0958 16.0586ZM18.4445 16.5131V19.9436H17.7347V16.5131H18.4445Z" fill="#2D2D2B"/>
<path d="M21.599 17.7209C21.8314 17.7624 22.0286 17.8849 22.1905 18.0882C22.3523 18.2916 22.4333 18.522 22.4333 18.7793C22.4333 18.9993 22.3752 19.1985 22.259 19.377C22.1469 19.5514 21.9829 19.6904 21.7671 19.7942C21.5513 19.8938 21.3001 19.9436 21.0138 19.9436H19.2829V15.6165H20.9328C21.2275 15.6165 21.4807 15.6663 21.6924 15.7659C21.9041 15.8656 22.0639 16.0005 22.1718 16.1706C22.2797 16.3367 22.3337 16.5234 22.3337 16.731C22.3337 16.98 22.2673 17.1875 22.1344 17.3536C22.0016 17.5196 21.8231 17.642 21.599 17.7209ZM19.9927 17.4345H20.8706C21.103 17.4345 21.2835 17.3826 21.4122 17.2789C21.545 17.1709 21.6114 17.0174 21.6114 16.8181C21.6114 16.6231 21.545 16.4716 21.4122 16.3636C21.2835 16.2516 21.103 16.1955 20.8706 16.1955H19.9927V17.4345ZM20.9515 19.3646C21.1922 19.3646 21.3811 19.3065 21.5181 19.1902C21.655 19.074 21.7235 18.9121 21.7235 18.7046C21.7235 18.4929 21.6509 18.3248 21.5056 18.2003C21.3603 18.0758 21.1673 18.0135 20.9266 18.0135H19.9927V19.3646H20.9515Z" fill="#2D2D2B"/>
<path d="M22.8746 18.2128C22.8746 17.8683 22.9452 17.5632 23.0863 17.2975C23.2316 17.0319 23.4266 16.8264 23.6715 16.6812C23.9206 16.5317 24.1945 16.457 24.4934 16.457C24.7632 16.457 24.9977 16.511 25.1969 16.6189C25.4003 16.7227 25.5622 16.8534 25.6825 17.0111V16.5131H26.3985V19.9436H25.6825V19.4331C25.5622 19.5949 25.3982 19.7298 25.1907 19.8377C24.9831 19.9457 24.7466 19.9996 24.4809 19.9996C24.1862 19.9996 23.9164 19.9249 23.6715 19.7755C23.4266 19.6219 23.2316 19.4102 23.0863 19.1404C22.9452 18.8665 22.8746 18.5573 22.8746 18.2128ZM25.6825 18.2252C25.6825 17.9886 25.6327 17.7832 25.5331 17.6088C25.4376 17.4345 25.311 17.3017 25.1533 17.2104C24.9956 17.1191 24.8254 17.0734 24.6428 17.0734C24.4602 17.0734 24.29 17.1191 24.1323 17.2104C23.9745 17.2975 23.8459 17.4283 23.7462 17.6026C23.6508 17.7728 23.603 17.9762 23.603 18.2128C23.603 18.4493 23.6508 18.6569 23.7462 18.8354C23.8459 19.0138 23.9745 19.1508 24.1323 19.2463C24.2941 19.3376 24.4643 19.3832 24.6428 19.3832C24.8254 19.3832 24.9956 19.3376 25.1533 19.2463C25.311 19.155 25.4376 19.0221 25.5331 18.8478C25.6327 18.6693 25.6825 18.4618 25.6825 18.2252Z" fill="#2D2D2B"/>
<path d="M27.9471 17.0111C28.0509 16.8368 28.1879 16.7019 28.3581 16.6065C28.5324 16.5068 28.7378 16.457 28.9744 16.457V17.1917H28.7939C28.5158 17.1917 28.3041 17.2623 28.1588 17.4034C28.0177 17.5445 27.9471 17.7894 27.9471 18.138V19.9436H27.2374V16.5131H27.9471V17.0111Z" fill="#2D2D2B"/>
<path d="M32.6402 16.5131V19.9436H31.9305V19.5389C31.8184 19.68 31.6711 19.7921 31.4884 19.8751C31.3099 19.954 31.119 19.9934 30.9156 19.9934C30.6458 19.9934 30.403 19.9374 30.1872 19.8253C29.9755 19.7132 29.8074 19.5472 29.6829 19.3272C29.5625 19.1072 29.5023 18.8416 29.5023 18.5303V16.5131H30.2059V18.4244C30.2059 18.7316 30.2827 18.9682 30.4362 19.1342C30.5898 19.2961 30.7994 19.377 31.0651 19.377C31.3307 19.377 31.5403 19.2961 31.6939 19.1342C31.8516 18.9682 31.9305 18.7316 31.9305 18.4244V16.5131H32.6402Z" fill="#2D2D2B"/>
<path d="M35.7994 17.7209C36.0318 17.7624 36.229 17.8849 36.3909 18.0882C36.5527 18.2916 36.6337 18.522 36.6337 18.7793C36.6337 18.9993 36.5756 19.1985 36.4594 19.377C36.3473 19.5514 36.1833 19.6904 35.9675 19.7942C35.7517 19.8938 35.5005 19.9436 35.2142 19.9436H33.4833V15.6165H35.1332C35.4279 15.6165 35.6811 15.6663 35.8928 15.7659C36.1045 15.8656 36.2643 16.0005 36.3722 16.1706C36.4801 16.3367 36.5341 16.5234 36.5341 16.731C36.5341 16.98 36.4677 17.1875 36.3348 17.3536C36.202 17.5196 36.0235 17.642 35.7994 17.7209ZM34.1931 17.4345H35.071C35.3034 17.4345 35.4839 17.3826 35.6126 17.2789C35.7454 17.1709 35.8118 17.0174 35.8118 16.8181C35.8118 16.6231 35.7454 16.4716 35.6126 16.3636C35.4839 16.2516 35.3034 16.1955 35.071 16.1955H34.1931V17.4345ZM35.1519 19.3646C35.3926 19.3646 35.5815 19.3065 35.7185 19.1902C35.8554 19.074 35.9239 18.9121 35.9239 18.7046C35.9239 18.4929 35.8513 18.3248 35.706 18.2003C35.5607 18.0758 35.3677 18.0135 35.127 18.0135H34.1931V19.3646H35.1519Z" fill="#2D2D2B"/>
<path d="M40.4557 18.1443C40.4557 18.2729 40.4474 18.3892 40.4308 18.4929H37.8097C37.8304 18.7669 37.9321 18.9869 38.1147 19.1529C38.2974 19.3189 38.5215 19.4019 38.7871 19.4019C39.169 19.4019 39.4388 19.2421 39.5965 18.9225H40.3623C40.2586 19.238 40.0697 19.4974 39.7958 19.7008C39.526 19.9 39.1898 19.9996 38.7871 19.9996C38.4592 19.9996 38.1645 19.927 37.9031 19.7817C37.6457 19.6323 37.4423 19.4248 37.2929 19.1591C37.1476 18.8893 37.075 18.578 37.075 18.2252C37.075 17.8724 37.1456 17.5632 37.2867 17.2975C37.432 17.0277 37.6333 16.8202 37.8906 16.6749C38.1521 16.5297 38.4509 16.457 38.7871 16.457C39.1109 16.457 39.3994 16.5276 39.6526 16.6687C39.9058 16.8098 40.1029 17.0091 40.244 17.2664C40.3852 17.5196 40.4557 17.8122 40.4557 18.1443ZM39.7148 17.9201C39.7107 17.6586 39.6173 17.449 39.4347 17.2913C39.252 17.1336 39.0258 17.0547 38.756 17.0547C38.5111 17.0547 38.3015 17.1336 38.1272 17.2913C37.9529 17.4449 37.8491 17.6545 37.8159 17.9201H39.7148Z" fill="#2D2D2B"/>
<path d="M41.7706 17.0111C41.8743 16.8368 42.0113 16.7019 42.1815 16.6065C42.3558 16.5068 42.5613 16.457 42.7979 16.457V17.1917H42.6173C42.3392 17.1917 42.1275 17.2623 41.9823 17.4034C41.8411 17.5445 41.7706 17.7894 41.7706 18.138V19.9436H41.0608V16.5131H41.7706V17.0111Z" fill="#2D2D2B"/>
<path d="M43.718 16.0586C43.5893 16.0586 43.4814 16.015 43.3942 15.9278C43.3071 15.8407 43.2635 15.7327 43.2635 15.6041C43.2635 15.4754 43.3071 15.3675 43.3942 15.2803C43.4814 15.1931 43.5893 15.1496 43.718 15.1496C43.8425 15.1496 43.9484 15.1931 44.0355 15.2803C44.1227 15.3675 44.1663 15.4754 44.1663 15.6041C44.1663 15.7327 44.1227 15.8407 44.0355 15.9278C43.9484 16.015 43.8425 16.0586 43.718 16.0586ZM44.0667 16.5131V19.9436H43.3569V16.5131H44.0667Z" fill="#2D2D2B"/>
<path d="M45.7332 17.0921V18.991C45.7332 19.1197 45.7622 19.2131 45.8203 19.2712C45.8826 19.3251 45.9864 19.3521 46.1316 19.3521H46.5675V19.9436H46.0071C45.6875 19.9436 45.4426 19.8689 45.2725 19.7195C45.1023 19.57 45.0172 19.3272 45.0172 18.991V17.0921H44.6125V16.5131H45.0172V15.6601H45.7332V16.5131H46.5675V17.0921H45.7332Z" fill="#2D2D2B"/>
<path d="M46.8917 18.2128C46.8917 17.8683 46.9622 17.5632 47.1033 17.2975C47.2486 17.0319 47.4437 16.8264 47.6886 16.6812C47.9376 16.5317 48.2116 16.457 48.5104 16.457C48.7802 16.457 49.0147 16.511 49.214 16.6189C49.4173 16.7227 49.5792 16.8534 49.6996 17.0111V16.5131H50.4156V19.9436H49.6996V19.4331C49.5792 19.5949 49.4153 19.7298 49.2077 19.8377C49.0002 19.9457 48.7636 19.9996 48.498 19.9996C48.2033 19.9996 47.9335 19.9249 47.6886 19.7755C47.4437 19.6219 47.2486 19.4102 47.1033 19.1404C46.9622 18.8665 46.8917 18.5573 46.8917 18.2128ZM49.6996 18.2252C49.6996 17.9886 49.6498 17.7832 49.5502 17.6088C49.4547 17.4345 49.3281 17.3017 49.1704 17.2104C49.0126 17.1191 48.8425 17.0734 48.6598 17.0734C48.4772 17.0734 48.307 17.1191 48.1493 17.2104C47.9916 17.2975 47.8629 17.4283 47.7633 17.6026C47.6678 17.7728 47.6201 17.9762 47.6201 18.2128C47.6201 18.4493 47.6678 18.6569 47.7633 18.8354C47.8629 19.0138 47.9916 19.1508 48.1493 19.2463C48.3112 19.3376 48.4814 19.3832 48.6598 19.3832C48.8425 19.3832 49.0126 19.3376 49.1704 19.2463C49.3281 19.155 49.4547 19.0221 49.5502 18.8478C49.6498 18.6693 49.6996 18.4618 49.6996 18.2252Z" fill="#2D2D2B"/>
</svg>
